<svg width="44" height="44" viewBox="0 0 44 44" fill="none" xmlns="http://www.w3.org/2000/svg">
<path d="M22 40.8276C32.3981 40.8276 40.8275 32.3982 40.8275 22C40.8275 11.6018 32.3981 3.17242 22 3.17242C11.6018 3.17242 3.17236 11.6018 3.17236 22C3.17236 32.3982 11.6018 40.8276 22 40.8276Z" stroke="#00264D" stroke-width="4.57143" stroke-linecap="round" stroke-linejoin="round"/>
<path d="M16.9309 16.6897C16.9309 15.6871 17.2282 14.7071 17.7852 13.8735C18.3422 13.0399 19.1338 12.3902 20.0601 12.0066C20.9863 11.6229 22.0055 11.5225 22.9888 11.7181C23.9721 11.9137 24.8753 12.3965 25.5842 13.1054C26.2931 13.8143 26.7759 14.7175 26.9714 15.7008C27.167 16.684 27.0666 17.7032 26.683 18.6295C26.2993 19.5557 25.6496 20.3474 24.816 20.9044C23.9825 21.4613 23.0024 21.7586 21.9999 21.7586V25.138" stroke="#00264D" stroke-width="5.33333" stroke-linecap="round" stroke-linejoin="round"/>
<path d="M22.0001 30.2069C21.4988 30.2069 21.0088 30.3556 20.592 30.634C20.1752 30.9125 19.8503 31.3084 19.6585 31.7715C19.4667 32.2346 19.4165 32.7442 19.5143 33.2358C19.6121 33.7275 19.8535 34.1791 20.2079 34.5335C20.5624 34.888 21.014 35.1294 21.5056 35.2272C21.9972 35.325 22.5068 35.2748 22.97 35.083C23.4331 34.8911 23.8289 34.5663 24.1074 34.1495C24.3859 33.7327 24.5345 33.2427 24.5345 32.7414C24.5258 32.0719 24.256 31.4323 23.7825 30.9589C23.3091 30.4855 22.6695 30.2157 22.0001 30.2069Z" fill="#00264D"/>
</svg>
