<svg width="87" height="53" viewBox="0 0 87 53" fill="none" xmlns="http://www.w3.org/2000/svg">
<path d="M86.0113 11.7971V6.06711C82.6744 6.06711 79.9442 3.33691 79.9442 0H6.06036V0.195496C5.9525 3.44477 3.2695 6.06711 0 6.06711V11.7971C2.37291 12.6263 4.08518 14.8779 4.08518 17.5272C4.08518 20.1765 2.36617 22.4281 0 23.2572V29.3311C2.37291 30.1603 4.08518 32.4118 4.08518 35.0611C4.08518 37.7037 2.36617 39.962 0 40.7912V46.5145C3.28298 46.5145 5.9525 49.1233 6.05362 52.3861V52.5816H79.9375V52.5748C79.9375 49.2245 82.6542 46.5145 86.0046 46.5145V40.7844C83.6317 39.9553 81.9194 37.7037 81.9194 35.0544C81.9194 32.4118 83.6384 30.1535 86.0046 29.3243V23.2572C83.6317 22.4281 81.9194 20.1765 81.9194 17.5272C81.9194 14.8779 83.6384 12.6263 86.0113 11.7971Z" fill="#6D98FB"/>
<path d="M19.9181 33.1054H24.7454V20.0253H19.9181V14.7012H35.8212V20.0253H30.9904V33.1089H35.8177V38.433H19.9181V33.1054Z" fill="#004A9B"/>
<path d="M58.715 38.4295L46.078 24.2051V38.4295H39.7594V14.7012H46.7886L59.3556 28.9989V14.7012H65.6042V38.433H58.715V38.4295Z" fill="#004A9B"/>
<path d="M16.4771 42.8429C14.6568 42.8429 13.3616 42.4661 12.5914 41.709C11.8213 40.9519 11.4362 39.7063 11.4362 37.9688V30.7537C11.4362 29.6965 11.2052 28.9394 10.7431 28.4859C10.281 28.0323 9.69996 27.8055 9.00684 27.8055H8.00568V25.3982H9.00684C9.69996 25.3982 10.2775 25.1714 10.7396 24.7143C11.2017 24.2573 11.4362 23.5002 11.4362 22.436V15.186C11.4362 13.4415 11.8213 12.189 12.5914 11.4284C13.3616 10.6678 14.6568 10.291 16.4771 10.291H17.9018V12.6984H17.0161C15.5529 12.6984 14.6918 13.0264 14.4362 13.6823C14.2822 14.0626 14.2052 14.7185 14.2052 15.6535V22.778C14.2052 24.5469 13.3966 25.8099 11.7828 26.567C13.3966 27.3241 14.2052 28.5871 14.2052 30.356V37.4804C14.2052 38.8969 14.4502 39.7657 14.9368 40.0936C15.2694 40.3204 15.9625 40.4355 17.0161 40.4355H17.9018V42.8429H16.4771Z" fill="#004A9B"/>
<path d="M77.485 27.8055H76.5224C75.8292 27.8055 75.2516 28.0323 74.7931 28.4859C74.331 28.9394 74.1 29.6965 74.1 30.7537V37.9688C74.1 39.7063 73.7149 40.9554 72.9448 41.709C72.1747 42.4661 70.8759 42.8429 69.0522 42.8429H67.5889V40.4355H68.5166C69.6753 40.4355 70.4349 40.2576 70.7954 39.9052C71.156 39.5528 71.338 38.7434 71.338 37.4804V30.356C71.338 28.5871 72.1432 27.3241 73.7534 26.567C72.1432 25.8099 71.338 24.5469 71.338 22.778V15.6535C71.338 14.2649 71.079 13.3927 70.5644 13.0403C70.2283 12.8135 69.5457 12.6984 68.5166 12.6984H67.5889V10.291H69.0522C70.8759 10.291 72.1712 10.6713 72.9448 11.4284C73.7149 12.189 74.1 13.4415 74.1 15.186V22.436C74.1 23.5002 74.331 24.2573 74.7931 24.7143C75.2552 25.1714 75.8292 25.3982 76.5224 25.3982H77.485V27.8055Z" fill="#004A9B"/>
</svg>
